com/dinghang/spring/extension/OtherExtensionImpl.class
com/dinghang/spring/Provide.class
com/dinghang/spring/extension/ExtensionType.class
com/dinghang/spring/PeopleBeanDefinitionParser.class
com/dinghang/spring/People.class
com/dinghang/spring/DinghangNameSpaceHandler.class
com/dinghang/spring/App.class
com/dinghang/spring/extension/AdaptiveExtension.class
com/dinghang/spring/extension/DinghangFirstExtension.class
com/dinghang/spring/extension/DefaultExtensionImpl.class
com/dinghang/spring/javaassist/JavassistGenerator.class
